{"_embedded":{"events":[{"name":"Cuidading Liren Masterclass","type":"event","id":"Z698xZ2qZaFCo","test":false,"url":"https://www.ticketmaster.es/event/anastacia-tickets/33681?language=en-us","locale":"en-us","images":[{"ratio":"16_9","url":"https://s1.ticketm.net/dam/a/873/e450fb6a-8a73-4526-b84c-2bccd7355873_1830251_TABLET_LANDSCAPE_LARGE_16_9.jpg","width":2048,"height":1152,"fallback":false},{"ratio":"3_2","url":"https://s1.ticketm.net/dam/a/873/e450fb6a-8a73-4526-b84c-2bccd7355873_1830251_RETINA_PORTRAIT_3_2.jpg","width":640,"height":427,"fallback":false},{"ratio":"3_2","url":"https://s1.ticketm.net/dam/a/873/e450fb6a-8a73-4526-b84c-2bccd7355873_1830251_TABLET_LANDSCAPE_3_2.jpg","width":1024,"height":683,"fallback":false},{"ratio":"4_3","url":"https://s1.ticketm.net/dam/a/873/e450fb6a-8a73-4526-b84c-2bccd7355873_1830251_CUSTOM.jpg","width":305,"height":225,"fallback":false},{"ratio":"16_9","url":"https://s1.ticketm.net/dam/a/873/e450fb6a-8a73-4526-b84c-2bccd7355873_1830251_EVENT_DETAIL_PAGE_16_9.jpg","width":205,"height":115,"fallback":false},{"ratio":"3_2","url":"https://s1.ticketm.net/dam/a/873/e450fb6a-8a73-4526-b84c-2bccd7355873_1830251_ARTIST_PAGE_3_2.jpg","width":305,"height":203,"fallback":false},{"ratio":"16_9","url":"https://s1.ticketm.net/dam/a/873/e450fb6a-8a73-4526-b84c-2bccd7355873_1830251_RECOMENDATION_16_9.jpg","width":100,"height":56,"fallback":false},{"ratio":"16_9","url":"https://s1.ticketm.net/dam/a/873/e450fb6a-8a73-4526-b84c-2bccd7355873_1830251_TABLET_LANDSCAPE_16_9.jpg","width":1024,"height":576,"fallback":false},{"ratio":"16_9","url":"https://s1.ticketm.net/dam/a/873/e450fb6a-8a73-4526-b84c-2bccd7355873_1830251_RETINA_LANDSCAPE_16_9.jpg","width":1136,"height":639,"fallback":false},{"ratio":"16_9","url":"https://s1.ticketm.net/dam/a/873/e450fb6a-8a73-4526-b84c-2bccd7355873_1830251_RETINA_PORTRAIT_16_9.jpg","width":640,"height":360,"fallback":false}],"sales":{"public":{"startDateTime":"2022-12-29T09:00:00Z","startTBD":false,"startTBA":false,"endDateTime":"2023-07-17T19:30:00Z"}},"dates":{"start":{"localDate":"2023-07-17","localTime":"21:30:00","dateTime":"2023-07-17T19:30:00Z","dateTBD":false,"dateTBA":false,"timeTBA":false,"noSpecificTime":false},"timezone":"Europe/Madrid","status":{"code":"onsale"},"spanMultipleDays":false},"classifications":[{"primary":true,"segment":{"id":"KZFzniwnSyZfZ7v7nJ","name":"Music"},"genre":{"id":"KnvZfZ7vAeA","name":"Rock"},"subGenre":{"id":"KZazBEonSMnZfZ7v6F1","name":"Pop"},"family":false}],"promoter":{"id":"2727","name":"Live Nation España S.A.U."},"promoters":[{"id":"2727","name":"Live Nation España S.A.U."}],"priceRanges":[{"type":"standard including fees","currency":"EUR","min":54.5,"max":170.0},{"type":"standard","currency":"EUR","min":48.0,"max":150.0}],"_links":{"self":{"href":"/discovery/v2/events/Z698xZ2qZaFCo?locale=en-us"},"attractions":[{"href":"/discovery/v2/attractions/K8vZ9175n0f?locale=en-us"}],"venues":[{"href":"/discovery/v2/venues/Z598xZ2qZdF7k?locale=en-us"}]},"_embedded":{"venues":[{"name":"Palacio Municipal - IFEMA MADRID","type":"venue","id":"Z598xZ2qZdF7k","test":false,"url":"https://www.ticketmaster.es/venue/palacio-municipal-ifema-madrid-madrid-entradas/pccampomad/114","locale":"en-us","postalCode":"28042","timezone":"Europe/Madrid","city":{"name":"Madrid"},"state":{"name":"Madrid"},"country":{"name":"Spain","countryCode":"ES"},"address":{"line1":"Av. de la Capital de España Madrid, nº7"},"location":{"longitude":"-3.61687","latitude":"40.46218"},"upcomingEvents":{"mfx-es":2,"_total":2,"_filtered":0},"_links":{"self":{"href":"/discovery/v2/venues/Z598xZ2qZdF7k?locale=en-us"}}}],"attractions":[{"name":"Anastacia","type":"attraction","id":"K8vZ9175n0f","test":false,"url":"https://www.ticketmaster.com/anastacia-tickets/artist/713484","locale":"en-us","externalLinks":{"youtube":[{"url":"https://www.youtube.com/channel/UCr4T3zE6wmd39NCe_LFpqDw"}],"twitter":[{"url":"https://twitter.com/AnastaciaMusic"}],"itunes":[{"url":"https://music.apple.com/es/artist/anastacia/85942"}],"lastfm":[{"url":"http://www.last.fm/music/Anastacia"}],"facebook":[{"url":"https://www.facebook.com/Anastacia"}],"wiki":[{"url":"https://en.wikipedia.org/wiki/Anastacia"}],"spotify":[{"url":"https://open.spotify.com/artist/2siHvYaxjaW5rKVRiIrMYH"}],"instagram":[{"url":"http://instagram.com/anastaciamusic"}],"musicbrainz":[{"id":"d3b2bec4-b70e-460e-b433-a865ceac2de8"}],"homepage":[{"url":"http://www.anastacia.com/"}]},"images":[{"ratio":"16_9","url":"https://s1.ticketm.net/dam/a/873/e450fb6a-8a73-4526-b84c-2bccd7355873_1830251_TABLET_LANDSCAPE_LARGE_16_9.jpg","width":2048,"height":1152,"fallback":false},{"ratio":"3_2","url":"https://s1.ticketm.net/dam/a/873/e450fb6a-8a73-4526-b84c-2bccd7355873_1830251_RETINA_PORTRAIT_3_2.jpg","width":640,"height":427,"fallback":false},{"ratio":"3_2","url":"https://s1.ticketm.net/dam/a/873/e450fb6a-8a73-4526-b84c-2bccd7355873_1830251_TABLET_LANDSCAPE_3_2.jpg","width":1024,"height":683,"fallback":false},{"ratio":"4_3","url":"https://s1.ticketm.net/dam/a/873/e450fb6a-8a73-4526-b84c-2bccd7355873_1830251_CUSTOM.jpg","width":305,"height":225,"fallback":false},{"ratio":"16_9","url":"https://s1.ticketm.net/dam/a/873/e450fb6a-8a73-4526-b84c-2bccd7355873_1830251_EVENT_DETAIL_PAGE_16_9.jpg","width":205,"height":115,"fallback":false},{"ratio":"3_2","url":"https://s1.ticketm.net/dam/a/873/e450fb6a-8a73-4526-b84c-2bccd7355873_1830251_ARTIST_PAGE_3_2.jpg","width":305,"height":203,"fallback":false},{"ratio":"16_9","url":"https://s1.ticketm.net/dam/a/873/e450fb6a-8a73-4526-b84c-2bccd7355873_1830251_RECOMENDATION_16_9.jpg","width":100,"height":56,"fallback":false},{"ratio":"16_9","url":"https://s1.ticketm.net/dam/a/873/e450fb6a-8a73-4526-b84c-2bccd7355873_1830251_TABLET_LANDSCAPE_16_9.jpg","width":1024,"height":576,"fallback":false},{"ratio":"16_9","url":"https://s1.ticketm.net/dam/a/873/e450fb6a-8a73-4526-b84c-2bccd7355873_1830251_RETINA_LANDSCAPE_16_9.jpg","width":1136,"height":639,"fallback":false},{"ratio":"16_9","url":"https://s1.ticketm.net/dam/a/873/e450fb6a-8a73-4526-b84c-2bccd7355873_1830251_RETINA_PORTRAIT_16_9.jpg","width":640,"height":360,"fallback":false}],"classifications":[{"primary":true,"segment":{"id":"KZFzniwnSyZfZ7v7nJ","name":"Music"},"genre":{"id":"KnvZfZ7vAeA","name":"Rock"},"subGenre":{"id":"KZazBEonSMnZfZ7v6F1","name":"Pop"},"type":{"id":"KZAyXgnZfZ7v7nI","name":"Undefined"},"subType":{"id":"KZFzBErXgnZfZ7v7lJ","name":"Undefined"},"family":false}],"upcomingEvents":{"mfx-at":1,"mfx-es":2,"ticketmaster":1,"_total":4,"_filtered":0},"_links":{"self":{"href":"/discovery/v2/attractions/K8vZ9175n0f?locale=en-us"}}}]}},{"name":"The Weeknd: After Hours til Dawn Tour","type":"event","id":"Z698xZ2qZaFFR","test":false,"url":"https://www.ticketmaster.es/event/the-weeknd-after-hours-til-dawn-tour-tickets/33327?language=en-us","locale":"en-us","images":[{"ratio":"3_2","url":"https://s1.ticketm.net/dam/a/99f/b80198c3-8106-4088-bd6e-d19052e7599f_1852901_ARTIST_PAGE_3_2.jpg","width":305,"height":203,"fallback":false},{"ratio":"4_3","url":"https://s1.ticketm.net/dam/a/99f/b80198c3-8106-4088-bd6e-d19052e7599f_1852901_CUSTOM.jpg","width":305,"height":225,"fallback":false},{"ratio":"16_9","url":"https://s1.ticketm.net/dam/a/99f/b80198c3-8106-4088-bd6e-d19052e7599f_1852901_TABLET_LANDSCAPE_16_9.jpg","width":1024,"height":576,"fallback":false},{"ratio":"16_9","url":"https://s1.ticketm.net/dam/a/99f/b80198c3-8106-4088-bd6e-d19052e7599f_1852901_RETINA_LANDSCAPE_16_9.jpg","width":1136,"height":639,"fallback":false},{"ratio":"16_9","url":"https://s1.ticketm.net/dam/a/99f/b80198c3-8106-4088-bd6e-d19052e7599f_1852901_TABLET_LANDSCAPE_LARGE_16_9.jpg","width":2048,"height":1152,"fallback":false},{"ratio":"16_9","url":"https://s1.ticketm.net/dam/a/99f/b80198c3-8106-4088-bd6e-d19052e7599f_1852901_EVENT_DETAIL_PAGE_16_9.jpg","width":205,"height":115,"fallback":false},{"ratio":"16_9","url":"https://s1.ticketm.net/dam/a/99f/b80198c3-8106-4088-bd6e-d19052e7599f_1852901_RETINA_PORTRAIT_16_9.jpg","width":640,"height":360,"fallback":false},{"ratio":"16_9","url":"https://s1.ticketm.net/dam/a/99f/b80198c3-8106-4088-bd6e-d19052e7599f_SOURCE","width":2426,"height":1365,"fallback":false},{"ratio":"16_9","url":"https://s1.ticketm.net/dam/a/99f/b80198c3-8106-4088-bd6e-d19052e7599f_1852901_RECOMENDATION_16_9.jpg","width":100,"height":56,"fallback":false},{"ratio":"3_2","url":"https://s1.ticketm.net/dam/a/99f/b80198c3-8106-4088-bd6e-d19052e7599f_1852901_RETINA_PORTRAIT_3_2.jpg","width":640,"height":427,"fallback":false},{"ratio":"3_2","url":"https://s1.ticketm.net/dam/a/99f/b80198c3-8106-4088-bd6e-d19052e7599f_1852901_TABLET_LANDSCAPE_3_2.jpg","width":1024,"height":683,"fallback":false}],"sales":{"public":{"startDateTime":"2022-12-02T11:00:00Z","startTBD":false,"startTBA":false,"endDateTime":"2023-07-18T19:30:00Z"}},"dates":{"start":{"localDate":"2023-07-18","localTime":"21:30:00","dateTime":"2023-07-18T19:30:00Z","dateTBD":false,"dateTBA":false,"timeTBA":false,"noSpecificTime":false},"timezone":"Europe/Madrid","status":{"code":"onsale"},"spanMultipleDays":false},"classifications":[{"primary":true,"segment":{"id":"KZFzniwnSyZfZ7v7nJ","name":"Music"},"genre":{"id":"KnvZfZ7vAeA","name":"Rock"},"subGenre":{"id":"KZazBEonSMnZfZ7v6F1","name":"Pop"},"family":false}],"promoter":{"id":"6019","name":"Music on Tour 2020 AIE"},"promoters":[{"id":"6019","name":"Music on Tour 2020 AIE"}],"priceRanges":[{"type":"standard","currency":"EUR","min":56.1,"max":301.1},{"type":"standard including fees","currency":"EUR","min":56.1,"max":333.1}],"seatmap":{"staticUrl":"https://media.ticketmaster.eu/spain/71b84d14e8638be7ec0cde5490725d23.jpg"},"_links":{"self":{"href":"/discovery/v2/events/Z698xZ2qZaFFR?locale=en-us"},"attractions":[{"href":"/discovery/v2/attractions/K8vZ9172Ln7?locale=en-us"}],"venues":[{"href":"/discovery/v2/venues/Z598xZ2qZ6Fe1?locale=en-us"}]},"_embedded":{"venues":[{"name":"Estadio Cívitas Metropolitano","type":"venue","id":"Z598xZ2qZ6Fe1","test":false,"url":"https://www.ticketmaster.es/venue/estadio-civitas-metropolitano-madrid-entradas/civitasmad/112","locale":"en-us","postalCode":"28022","timezone":"Europe/Madrid","city":{"name":"Madrid"},"state":{"name":"Madrid"},"country":{"name":"Spain","countryCode":"ES"},"address":{"line1":"Av. de Luis Aragonés, 4"},"location":{"longitude":"-3.59947","latitude":"40.43624"},"upcomingEvents":{"mfx-es":18,"_total":18,"_filtered":0},"_links":{"self":{"href":"/discovery/v2/venues/Z598xZ2qZ6Fe1?locale=en-us"}}}],"attractions":[{"name":"The Weeknd","type":"attraction","id":"K8vZ9172Ln7","test":false,"url":"https://www.ticketmaster.com/the-weeknd-tickets/artist/1697014","locale":"en-us","externalLinks":{"youtube":[{"url":"https://www.youtube.com/user/xoxxxoooxo"}],"twitter":[{"url":"https://twitter.com/TheWeeknd"}],"itunes":[{"url":"https://itunes.apple.com/artist/id479756766"}],"lastfm":[{"url":"http://www.last.fm/music/The+Weeknd"}],"facebook":[{"url":"https://www.facebook.com/theweeknd"}],"wiki":[{"url":"https://en.wikipedia.org/wiki/The_Weeknd"}],"spotify":[{"url":"https://open.spotify.com/artist/1Xyo4u8uXC1ZmMpatF05PJ"}],"instagram":[{"url":"https://www.instagram.com/theweeknd/"}],"musicbrainz":[{"id":"c8b03190-306c-4120-bb0b-6f2ebfc06ea9"}],"homepage":[{"url":"http://the-weeknd.com/"}]},"aliases":["the weekend","weekend","weakend"],"images":[{"ratio":"3_2","url":"https://s1.ticketm.net/dam/a/99f/b80198c3-8106-4088-bd6e-d19052e7599f_1852901_ARTIST_PAGE_3_2.jpg","width":305,"height":203,"fallback":false},{"ratio":"4_3","url":"https://s1.ticketm.net/dam/a/99f/b80198c3-8106-4088-bd6e-d19052e7599f_1852901_CUSTOM.jpg","width":305,"height":225,"fallback":false},{"ratio":"16_9","url":"https://s1.ticketm.net/dam/a/99f/b80198c3-8106-4088-bd6e-d19052e7599f_1852901_TABLET_LANDSCAPE_16_9.jpg","width":1024,"height":576,"fallback":false},{"ratio":"16_9","url":"https://s1.ticketm.net/dam/a/99f/b80198c3-8106-4088-bd6e-d19052e7599f_1852901_RETINA_LANDSCAPE_16_9.jpg","width":1136,"height":639,"fallback":false},{"ratio":"16_9","url":"https://s1.ticketm.net/dam/a/99f/b80198c3-8106-4088-bd6e-d19052e7599f_1852901_TABLET_LANDSCAPE_LARGE_16_9.jpg","width":2048,"height":1152,"fallback":false},{"ratio":"16_9","url":"https://s1.ticketm.net/dam/a/99f/b80198c3-8106-4088-bd6e-d19052e7599f_1852901_EVENT_DETAIL_PAGE_16_9.jpg","width":205,"height":115,"fallback":false},{"ratio":"16_9","url":"https://s1.ticketm.net/dam/a/99f/b80198c3-8106-4088-bd6e-d19052e7599f_1852901_RETINA_PORTRAIT_16_9.jpg","width":640,"height":360,"fallback":false},{"ratio":"16_9","url":"https://s1.ticketm.net/dam/a/99f/b80198c3-8106-4088-bd6e-d19052e7599f_SOURCE","width":2426,"height":1365,"fallback":false},{"ratio":"16_9","url":"https://s1.ticketm.net/dam/a/99f/b80198c3-8106-4088-bd6e-d19052e7599f_1852901_RECOMENDATION_16_9.jpg","width":100,"height":56,"fallback":false},{"ratio":"3_2","url":"https://s1.ticketm.net/dam/a/99f/b80198c3-8106-4088-bd6e-d19052e7599f_1852901_RETINA_PORTRAIT_3_2.jpg","width":640,"height":427,"fallback":false},{"ratio":"3_2","url":"https://s1.ticketm.net/dam/a/99f/b80198c3-8106-4088-bd6e-d19052e7599f_1852901_TABLET_LANDSCAPE_3_2.jpg","width":1024,"height":683,"fallback":false}],"classifications":[{"primary":true,"segment":{"id":"KZFzniwnSyZfZ7v7nJ","name":"Music"},"genre":{"id":"KnvZfZ7vAv1","name":"Hip-Hop/Rap"},"subGenre":{"id":"KZazBEonSMnZfZ7vkdA","name":"Urban"},"type":{"id":"KZAyXgnZfZ7v7nI","name":"Undefined"},"subType":{"id":"KZFzBErXgnZfZ7v7lJ","name":"Undefined"},"family":false}],"upcomingEvents":{"mfx-fi":1,"mfx-es":3,"ticketmaster":9,"mfx-it":2,"mfx-cz":2,"ticketnet":7,"mfx-de":2,"mfx-pl":4,"_total":30,"_filtered":0},"_links":{"self":{"href":"/discovery/v2/attractions/K8vZ9172Ln7?locale=en-us"}}}]}}]},"_links":{"first":{"href":"/discovery/v2/events.json?city=Madrid&page=0&size=2"},"self":{"href":"/discovery/v2/events.json?size=2&city=Madrid&page=0"},"next":{"href":"/discovery/v2/events.json?city=Madrid&page=1&size=2"},"last":{"href":"/discovery/v2/events.json?city=Madrid&page=32&size=2"}},"page":{"size":2,"totalElements":66,"totalPages":33,"number":1}}